<?xml version="1.0" encoding="UTF-8" standalone="no"?>
<svg
   xmlns:dc="http://purl.org/dc/elements/1.1/"
   xmlns:cc="http://creativecommons.org/ns#"
   xmlns:rdf="http://www.w3.org/1999/02/22-rdf-syntax-ns#"
   xmlns:svg="http://www.w3.org/2000/svg"
   xmlns="http://www.w3.org/2000/svg"
   xmlns:sodipodi="http://sodipodi.sourceforge.net/DTD/sodipodi-0.dtd"
   xmlns:inkscape="http://www.inkscape.org/namespaces/inkscape"
   inkscape:version="1.0.2 (e86c870879, 2021-01-15)"
   id="svg8"
   version="1.1"
   viewBox="0 0 230.77873 116.26804"
   height="11.626804cm"
   width="23.077873cm"
   inkscape:export-filename="/home/shockrah/arch.svg.png"
   inkscape:export-xdpi="96"
   inkscape:export-ydpi="96"
   sodipodi:docname="arch.svg">
  <defs
     id="defs2">
    <rect
       x="55.464069"
       y="35.958199"
       width="43.066639"
       height="21.447441"
       id="rect425" />
  </defs>
  <sodipodi:namedview
     units="cm"
     inkscape:pagecheckerboard="true"
     showgrid="false"
     inkscape:document-rotation="0"
     inkscape:current-layer="layer1"
     inkscape:document-units="mm"
     inkscape:cy="177.02922"
     inkscape:cx="260.40981"
     inkscape:zoom="0.70710678"
     inkscape:pageshadow="2"
     inkscape:pageopacity="0"
     borderopacity="1.0"
     bordercolor="#666666"
     pagecolor="#000000"
     id="base"
     inkscape:window-width="1920"
     inkscape:window-height="1058"
     inkscape:window-x="0"
     inkscape:window-y="22"
     inkscape:window-maximized="1"
     fit-margin-top="0"
     fit-margin-left="0"
     fit-margin-right="0"
     fit-margin-bottom="0" />
  <metadata
     id="metadata5">
    <rdf:RDF>
      <cc:Work
         rdf:about="">
        <dc:format>image/svg+xml</dc:format>
        <dc:type
           rdf:resource="http://purl.org/dc/dcmitype/StillImage" />
        <dc:title></dc:title>
      </cc:Work>
    </rdf:RDF>
  </metadata>
  <g
     inkscape:groupmode="layer"
     id="layer2"
     inkscape:label="backs"
     transform="translate(-11.336331,-5.0007677)">
    <rect
       style="fill:#ffffff;stroke-width:0.316169"
       id="rect7-1"
       width="106.52345"
       height="53.471294"
       x="11.336331"
       y="67.797516"
       ry="3.0127974"
       inkscape:export-xdpi="96"
       inkscape:export-ydpi="96" />
    <text
       xml:space="preserve"
       style="font-size:10.5833px;line-height:18.6px;font-family:sans-serif;letter-spacing:0px;word-spacing:0px;stroke-width:0.264583"
       x="29.803932"
       y="77.632545"
       id="text393"><tspan
         sodipodi:role="line"
         id="tspan391"
         x="29.803932"
         y="77.632545"
         style="stroke-width:0.264583">Game servers</tspan></text>
    <text
       xml:space="preserve"
       id="text423"
       style="font-size:10.5833px;line-height:18.6px;font-family:sans-serif;letter-spacing:0px;word-spacing:0px;white-space:pre;shape-inside:url(#rect425);" />
  </g>
  <g
     id="layer1"
     inkscape:groupmode="layer"
     inkscape:label="Layer 1"
     transform="translate(-11.336331,-5.0007677)">
    <rect
       style="fill:#00ff66;stroke-width:0.102712"
       id="rect90"
       width="16.173546"
       height="13.230754"
       x="18.561098"
       y="83.926842"
       ry="0.99613762"
       inkscape:export-xdpi="96"
       inkscape:export-ydpi="96" />
    <rect
       style="fill:#ff0000;fill-opacity:1;stroke-width:0.102712"
       id="rect90-5"
       width="16.173546"
       height="13.230754"
       x="37.53619"
       y="83.926842"
       ry="0.99613762"
       inkscape:export-xdpi="96"
       inkscape:export-ydpi="96" />
    <rect
       style="fill:#00ff66;fill-opacity:1;stroke-width:0.102712"
       id="rect90-5-6"
       width="16.173546"
       height="13.230754"
       x="37.53619"
       y="100.23837"
       ry="0.99613762"
       inkscape:export-xdpi="96"
       inkscape:export-ydpi="96" />
    <rect
       style="fill:#ff0000;fill-opacity:1;stroke-width:0.102712"
       id="rect90-5-2"
       width="16.173546"
       height="13.230754"
       x="18.561098"
       y="100.345"
       ry="0.99613762"
       inkscape:export-xdpi="96"
       inkscape:export-ydpi="96" />
    <rect
       style="fill:#00ff66;fill-opacity:1;stroke-width:0.102712"
       id="rect90-5-1"
       width="16.173546"
       height="13.230754"
       x="56.511284"
       y="83.926842"
       ry="0.99613762"
       inkscape:export-xdpi="96"
       inkscape:export-ydpi="96" />
    <rect
       style="fill:#ff0000;stroke-width:0.102712"
       id="rect90-5-6-2"
       width="16.173546"
       height="13.230754"
       x="56.511284"
       y="100.23837"
       ry="0.99613762"
       inkscape:export-xdpi="96"
       inkscape:export-ydpi="96" />
    <rect
       style="fill:#ff0000;fill-opacity:1;stroke-width:0.102712"
       id="rect90-5-9"
       width="16.173546"
       height="13.230754"
       x="75.486389"
       y="83.926842"
       ry="0.99613762"
       inkscape:export-xdpi="96"
       inkscape:export-ydpi="96" />
    <rect
       style="fill:#00ff66;fill-opacity:1;stroke-width:0.102712"
       id="rect90-5-6-3"
       width="16.173546"
       height="13.230754"
       x="75.486389"
       y="100.23837"
       ry="0.99613762"
       inkscape:export-xdpi="96"
       inkscape:export-ydpi="96" />
    <rect
       style="fill:#ff0000;fill-opacity:1;stroke-width:0.102712"
       id="rect90-5-1-0"
       width="16.173546"
       height="13.230754"
       x="94.461472"
       y="83.926842"
       ry="0.99613762"
       inkscape:export-xdpi="96"
       inkscape:export-ydpi="96" />
    <rect
       style="fill:#ff0000;stroke-width:0.102712"
       id="rect90-5-6-2-6"
       width="16.173546"
       height="13.230754"
       x="94.461472"
       y="100.23837"
       ry="0.99613762"
       inkscape:export-xdpi="96"
       inkscape:export-ydpi="96" />
    <rect
       style="fill:#ffffff;stroke-width:0.199523"
       id="rect7"
       width="106.52345"
       height="21.294701"
       x="11.336331"
       y="5.0007677"
       ry="1.199833"
       inkscape:export-xdpi="96"
       inkscape:export-ydpi="96" />
    <text
       xml:space="preserve"
       style="font-size:10.5833px;line-height:18.6px;font-family:sans-serif;letter-spacing:0px;word-spacing:0px;stroke-width:0.264583"
       x="44.634991"
       y="20.032154"
       id="text11"
       inkscape:export-xdpi="96"
       inkscape:export-ydpi="96"><tspan
         sodipodi:role="line"
         id="tspan9"
         x="44.634991"
         y="20.032154"
         style="stroke-width:0.264583">LewdLad</tspan></text>
    <rect
       style="fill:#ffffff;stroke-width:0.158535"
       id="rect7-2"
       width="63.459583"
       height="22.567453"
       x="158.30746"
       y="50.834526"
       ry="1.2715453"
       inkscape:export-xdpi="96"
       inkscape:export-ydpi="96" />
    <text
       xml:space="preserve"
       style="font-size:10.5833px;line-height:18.6px;font-family:sans-serif;letter-spacing:0px;word-spacing:0px;stroke-width:0.264583"
       x="162.79707"
       y="65.058525"
       id="text246"
       inkscape:export-xdpi="96"
       inkscape:export-ydpi="96"><tspan
         sodipodi:role="line"
         x="162.79707"
         y="65.058525"
         style="stroke-width:0.264583"
         id="tspan248">LoggerLad</tspan></text>
    <text
       xml:space="preserve"
       style="font-size:7.15674px;line-height:12.5779px;font-family:sans-serif;letter-spacing:0px;word-spacing:0px;stroke-width:0.178919"
       x="-62.169464"
       y="67.520874"
       id="text397"
       transform="rotate(-90)"><tspan
         sodipodi:role="line"
         id="tspan395"
         x="-62.169464"
         y="67.520874"
         style="stroke-width:0.178919" /></text>
    <rect
       style="fill:#ffffff;fill-opacity:1;stroke-width:0.239954"
       id="rect433"
       width="7.3296876"
       height="17.367353"
       x="-54.963844"
       y="40.785397"
       ry="2.5700593" />
    <rect
       style="fill:#ffffff;fill-opacity:1;stroke-width:0.17833"
       id="rect435"
       width="37.718185"
       height="6.8451838"
       x="-85.352341"
       y="51.307564"
       ry="0.69888401" />
    <rect
       style="fill:#ffffff;fill-opacity:1;stroke-width:0.237835"
       id="rect437"
       width="7.601191"
       height="18.477961"
       x="-85.352341"
       y="51.307564"
       ry="0.69888359" />
    <rect
       style="fill:#ffffff;fill-opacity:1;stroke-width:0.17833"
       id="rect435-7"
       width="37.718185"
       height="6.8451838"
       x="-54.963844"
       y="51.307564"
       ry="0.69888401" />
    <rect
       style="fill:#ffffff;fill-opacity:1;stroke-width:0.237835"
       id="rect437-9"
       width="7.601191"
       height="18.477961"
       x="-24.846848"
       y="51.307564"
       ry="0.69888359" />
    <rect
       style="fill:#ffffff;fill-opacity:1;stroke-width:0.24265"
       id="rect433-2"
       width="7.4953017"
       height="17.367353"
       x="60.550732"
       y="32.017338"
       ry="2.5700593" />
    <rect
       style="fill:#ffffff;fill-opacity:1;stroke-width:0.221992"
       id="rect435-0"
       width="58.448711"
       height="6.8451838"
       x="11.528774"
       y="42.539505"
       ry="0.69888401" />
    <rect
       style="fill:#ffffff;fill-opacity:1;stroke-width:0.221287"
       id="rect437-2"
       width="6.580184"
       height="18.477961"
       x="11.528774"
       y="42.539505"
       ry="0.69888359" />
    <rect
       style="fill:#ffffff;fill-opacity:1;stroke-width:0.221992"
       id="rect435-7-3"
       width="58.448711"
       height="6.8451838"
       x="58.619282"
       y="42.539505"
       ry="0.69888401" />
    <rect
       style="fill:#ffffff;fill-opacity:1;stroke-width:0.221287"
       id="rect437-2-5"
       width="6.580184"
       height="18.477961"
       x="110.48781"
       y="42.539505"
       ry="0.69888359" />
    <rect
       style="fill:#ffffff;fill-opacity:1;stroke-width:0.228483"
       id="rect435-0-4"
       width="61.91687"
       height="6.8451838"
       x="5.3627915"
       y="-142.58075"
       ry="0.69888401"
       transform="rotate(90)" />
    <rect
       style="fill:#ffffff;fill-opacity:1;stroke-width:0.221287"
       id="rect437-2-5-7"
       width="6.580184"
       height="18.477961"
       x="5.3627915"
       y="-142.58075"
       ry="0.69888359"
       transform="rotate(90)" />
    <rect
       style="fill:#ffffff;fill-opacity:1;stroke-width:0.24265"
       id="rect433-2-8"
       width="7.4953017"
       height="17.367353"
       x="56.316204"
       y="-153.10292"
       ry="2.5700593"
       transform="rotate(90)" />
    <rect
       style="fill:#ffffff;fill-opacity:1;stroke-width:0.228483"
       id="rect435-0-4-4"
       width="61.91687"
       height="6.8451838"
       x="59.339615"
       y="-142.58075"
       ry="0.69888401"
       transform="rotate(90)" />
    <rect
       style="fill:#ffffff;fill-opacity:1;stroke-width:0.221287"
       id="rect437-2-5-7-5"
       width="6.580184"
       height="18.477961"
       x="114.6763"
       y="-142.58075"
       ry="0.69888359"
       transform="rotate(90)" />
    <text
       xml:space="preserve"
       style="font-size:8.7214px;line-height:15.3277px;font-family:sans-serif;letter-spacing:0px;word-spacing:0px;stroke-width:0.218035"
       x="46.994785"
       y="48.698639"
       id="text823"><tspan
         sodipodi:role="line"
         id="tspan821"
         x="46.994785"
         y="48.698639"
         style="stroke-width:0.218035">controls</tspan></text>
    <text
       xml:space="preserve"
       style="font-size:6.69015px;line-height:11.7579px;font-family:sans-serif;letter-spacing:0px;word-spacing:0px;stroke-width:0.167254"
       x="37.214851"
       y="-137.27663"
       id="text827"
       transform="rotate(90)"><tspan
         sodipodi:role="line"
         id="tspan825"
         x="37.214851"
         y="-137.27663"
         style="stroke-width:0.167254">Report logs to</tspan></text>
  </g>
</svg>
